2019-12-14 17:25:20,620 INFO: Microblog startup [in /home/pawan/Desktop/projects/microblog/app/__init__.py:52]
2019-12-14 18:07:02,830 INFO: Microblog startup [in /home/pawan/Desktop/projects/microblog/app/__init__.py:52]
2019-12-14 18:07:42,138 INFO: Microblog startup [in /home/pawan/Desktop/projects/microblog/app/__init__.py:52]
2019-12-14 18:09:53,799 INFO: Microblog startup [in /home/pawan/Desktop/projects/microblog/app/__init__.py:52]
2019-12-14 18:10:51,222 INFO: Microblog startup [in /home/pawan/Desktop/projects/microblog/app/__init__.py:52]
2019-12-14 18:12:10,612 INFO: Microblog startup [in /home/pawan/Desktop/projects/microblog/app/__init__.py:52]
2019-12-14 18:14:23,650 INFO: Microblog startup [in /home/pawan/Desktop/projects/microblog/app/__init__.py:52]
2019-12-14 18:16:28,982 INFO: Microblog startup [in /home/pawan/Desktop/projects/microblog/app/__init__.py:52]
2019-12-14 18:20:56,726 INFO: Microblog startup [in /home/pawan/Desktop/projects/microblog/app/__init__.py:52]
2019-12-14 18:21:32,451 INFO: Microblog startup [in /home/pawan/Desktop/projects/microblog/app/__init__.py:52]
2019-12-14 18:21:54,772 INFO: Microblog startup [in /home/pawan/Desktop/projects/microblog/app/__init__.py:52]
2019-12-14 18:22:27,862 INFO: Microblog startup [in /home/pawan/Desktop/projects/microblog/app/__init__.py:52]
2019-12-14 18:24:03,362 INFO: Microblog startup [in /home/pawan/Desktop/projects/microblog/app/__init__.py:52]
2019-12-15 16:31:04,960 INFO: Microblog startup [in /home/pawan/Desktop/projects/microblog/app/__init__.py:52]
2019-12-15 16:33:47,765 INFO: Microblog startup [in /home/pawan/Desktop/projects/microblog/app/__init__.py:52]
2019-12-15 16:35:09,449 INFO: Microblog startup [in /home/pawan/Desktop/projects/microblog/app/__init__.py:52]
2019-12-15 16:38:07,049 INFO: Microblog startup [in /home/pawan/Desktop/projects/microblog/app/__init__.py:52]
2019-12-15 16:38:14,678 INFO: Microblog startup [in /home/pawan/Desktop/projects/microblog/app/__init__.py:52]
2019-12-15 16:44:11,115 INFO: Microblog startup [in /home/pawan/Desktop/projects/microblog/app/__init__.py:52]
2019-12-15 16:45:58,658 INFO: Microblog startup [in /home/pawan/Desktop/projects/microblog/app/__init__.py:52]
2019-12-15 16:46:24,277 INFO: Microblog startup [in /home/pawan/Desktop/projects/microblog/app/__init__.py:52]
2019-12-16 09:51:39,107 INFO: Microblog startup [in /home/pawan/Desktop/projects/microblog/app/__init__.py:53]
2019-12-16 09:52:38,837 INFO: Microblog startup [in /home/pawan/Desktop/projects/microblog/app/__init__.py:53]
2019-12-16 09:53:20,831 INFO: Microblog startup [in /home/pawan/Desktop/projects/microblog/app/__init__.py:53]
2019-12-16 09:58:57,928 INFO: Microblog startup [in /home/pawan/Desktop/projects/microblog/app/__init__.py:53]
2019-12-16 10:01:10,172 INFO: Microblog startup [in /home/pawan/Desktop/projects/microblog/app/__init__.py:53]
2019-12-16 10:04:57,601 INFO: Microblog startup [in /home/pawan/Desktop/projects/microblog/app/__init__.py:53]
2019-12-16 10:06:34,841 INFO: Microblog startup [in /home/pawan/Desktop/projects/microblog/app/__init__.py:53]
2019-12-16 10:07:08,811 INFO: Microblog startup [in /home/pawan/Desktop/projects/microblog/app/__init__.py:53]
2019-12-16 10:37:22,118 INFO: Microblog startup [in /home/pawan/Desktop/projects/microblog/app/__init__.py:53]
2019-12-16 10:58:34,596 INFO: Microblog startup [in /home/pawan/Desktop/projects/microblog/app/__init__.py:53]
2019-12-16 11:00:42,656 INFO: Microblog startup [in /home/pawan/Desktop/projects/microblog/app/__init__.py:53]
2019-12-16 11:03:41,196 INFO: Microblog startup [in /home/pawan/Desktop/projects/microblog/app/__init__.py:53]
2019-12-16 11:09:08,020 INFO: Microblog startup [in /home/pawan/Desktop/projects/microblog/app/__init__.py:43]
2019-12-16 11:47:07,425 INFO: Microblog startup [in /home/pawan/Desktop/projects/microblog/app/__init__.py:43]
2019-12-16 11:53:15,570 INFO: Microblog startup [in /home/pawan/Desktop/projects/microblog/app/__init__.py:43]
2019-12-16 11:55:50,290 ERROR: Exception on /login [POST] [in /home/pawan/Desktop/projects/microblog/microblog_venv/lib/python3.6/site-packages/flask/app.py:1891]
Traceback (most recent call last):
  File "/home/pawan/Desktop/projects/microblog/microblog_venv/lib/python3.6/site-packages/flask/app.py", line 2446, in wsgi_app
    response = self.full_dispatch_request()
  File "/home/pawan/Desktop/projects/microblog/microblog_venv/lib/python3.6/site-packages/flask/app.py", line 1951, in full_dispatch_request
    rv = self.handle_user_exception(e)
  File "/home/pawan/Desktop/projects/microblog/microblog_venv/lib/python3.6/site-packages/flask/app.py", line 1820, in handle_user_exception
    reraise(exc_type, exc_value, tb)
  File "/home/pawan/Desktop/projects/microblog/microblog_venv/lib/python3.6/site-packages/flask/_compat.py", line 39, in reraise
    raise value
  File "/home/pawan/Desktop/projects/microblog/microblog_venv/lib/python3.6/site-packages/flask/app.py", line 1949, in full_dispatch_request
    rv = self.dispatch_request()
  File "/home/pawan/Desktop/projects/microblog/microblog_venv/lib/python3.6/site-packages/flask/app.py", line 1935, in dispatch_request
    return self.view_functions[rule.endpoint](**req.view_args)
  File "/home/pawan/Desktop/projects/microblog/app/routes.py", line 41, in login
    if user is None or not user.check_password(form.password.data):
  File "/home/pawan/Desktop/projects/microblog/app/models.py", line 36, in check_password
    return check_password_hash(self.password_hash, password)
  File "/home/pawan/Desktop/projects/microblog/microblog_venv/lib/python3.6/site-packages/werkzeug/security.py", line 218, in check_password_hash
    if pwhash.count("$") < 2:
AttributeError: 'NoneType' object has no attribute 'count'
2019-12-16 12:10:40,833 INFO: Microblog startup [in /home/pawan/Desktop/projects/microblog/app/__init__.py:43]
2019-12-16 12:20:18,715 INFO: Microblog startup [in /home/pawan/Desktop/projects/microblog/app/__init__.py:43]
2019-12-16 12:23:12,704 INFO: Microblog startup [in /home/pawan/Desktop/projects/microblog/app/__init__.py:43]
2019-12-16 12:23:56,020 INFO: Microblog startup [in /home/pawan/Desktop/projects/microblog/app/__init__.py:43]
2019-12-16 14:29:35,641 INFO: Microblog startup [in /home/pawan/Desktop/projects/microblog/app/__init__.py:47]
